^D:\РАБОТА\НОВЫЙ СЕМЕСТР!!!!!!!!!!!!!!!\Курсовые MY NEW\STO\STO\STO\ADDAV.RESX
^D:\РАБОТА\НОВЫЙ СЕМЕСТР!!!!!!!!!!!!!!!\Курсовые MY NEW\STO\STO\STO\ADDAVTO.RESX
^D:\РАБОТА\НОВЫЙ СЕМЕСТР!!!!!!!!!!!!!!!\Курсовые MY NEW\STO\STO\STO\ADDMASTER.RESX
^D:\РАБОТА\НОВЫЙ СЕМЕСТР!!!!!!!!!!!!!!!\Курсовые MY NEW\STO\STO\STO\PROPERTIES\RESOURCES.RESX
^D:\РАБОТА\НОВЫЙ СЕМЕСТР!!!!!!!!!!!!!!!\Курсовые MY NEW\STO\STO\STO\ADDSERVICE.RESX
^D:\РАБОТА\НОВЫЙ СЕМЕСТР!!!!!!!!!!!!!!!\Курсовые MY NEW\STO\STO\STO\ADDTYPE.RESX
^D:\РАБОТА\НОВЫЙ СЕМЕСТР!!!!!!!!!!!!!!!\Курсовые MY NEW\STO\STO\STO\ADDZAKAZCHIK.RESX
^D:\РАБОТА\НОВЫЙ СЕМЕСТР!!!!!!!!!!!!!!!\Курсовые MY NEW\STO\STO\STO\ZAKAZ.RESX
^D:\РАБОТА\НОВЫЙ СЕМЕСТР!!!!!!!!!!!!!!!\Курсовые MY NEW\STO\STO\STO\FORM1.RESX
C:\WINDOWS\ASSEMBLY\PUBPOL45.DAT
^D:\РАБОТА\НОВЫЙ СЕМЕСТР!!!!!!!!!!!!!!!\Курсовые MY NEW\Курсовые\Сидоренко\STO\STO\ADDMASTER.RESX
^D:\РАБОТА\НОВЫЙ СЕМЕСТР!!!!!!!!!!!!!!!\Курсовые MY NEW\Курсовые\Сидоренко\STO\STO\ADDSERVICE.RESX
^D:\РАБОТА\НОВЫЙ СЕМЕСТР!!!!!!!!!!!!!!!\Курсовые MY NEW\Курсовые\Сидоренко\STO\STO\ADDTYPE.RESX
^D:\РАБОТА\НОВЫЙ СЕМЕСТР!!!!!!!!!!!!!!!\Курсовые MY NEW\Курсовые\Сидоренко\STO\STO\ADDZAKAZCHIK.RESX
^D:\РАБОТА\НОВЫЙ СЕМЕСТР!!!!!!!!!!!!!!!\Курсовые MY NEW\Курсовые\Сидоренко\STO\STO\FORM1.RESX
C:\WINDOWS\ASSEMBLY\PUBPOL45.DAT
C:\WINDOWS\MICROSOFT.NET\ASSEMBLY\GAC_MSIL\MICROSOFT.BUILD.TASKS.V4.0\V4.0_4.0.0.0__B03F5F7F11D50A3A\MICROSOFT.BUILD.TASKS.V4.0.DLL
^D:\РАБОТА\НОВЫЙ СЕМЕСТР!!!!!!!!!!!!!!!\Курсовые MY NEW\Курсовые\Сидоренко\STO\STO\PROPERTIES\RESOURCES.RESX
^D:\РАБОТА\НОВЫЙ СЕМЕСТР!!!!!!!!!!!!!!!\Курсовые MY NEW\Курсовые\Сидоренко\STO\STO\ZAKAZ.RESX
^D:\РАБОТА\НОВЫЙ СЕМЕСТР!!!!!!!!!!!!!!!\Курсовые MY NEW\Курсовые\Сидоренко\STO\STO\REPORT.RESX
^D:\РАБОТА\НОВЫЙ СЕМЕСТР!!!!!!!!!!!!!!!\Дипломы мои\готовое\STO\STO\ADDMASTER.RESX
^D:\РАБОТА\НОВЫЙ СЕМЕСТР!!!!!!!!!!!!!!!\Дипломы мои\готовое\STO\STO\ADDTYPE.RESX
^D:\РАБОТА\НОВЫЙ СЕМЕСТР!!!!!!!!!!!!!!!\Дипломы мои\готовое\STO\STO\ADDZAKAZCHIK.RESX
^D:\РАБОТА\НОВЫЙ СЕМЕСТР!!!!!!!!!!!!!!!\Дипломы мои\готовое\STO\STO\FORM1.RESX
C:\WINDOWS\ASSEMBLY\PUBPOL22.DAT
C:\WINDOWS\MICROSOFT.NET\ASSEMBLY\GAC_MSIL\MICROSOFT.BUILD.TASKS.V4.0\V4.0_4.0.0.0__B03F5F7F11D50A3A\MICROSOFT.BUILD.TASKS.V4.0.DLL
^D:\РАБОТА\НОВЫЙ СЕМЕСТР!!!!!!!!!!!!!!!\Дипломы мои\готовое\STO\STO\PROPERTIES\RESOURCES.RESX
^D:\РАБОТА\НОВЫЙ СЕМЕСТР!!!!!!!!!!!!!!!\Дипломы мои\готовое\STO\STO\REPORT.RESX
^D:\РАБОТА\НОВЫЙ СЕМЕСТР!!!!!!!!!!!!!!!\Дипломы мои\готовое\STO\STO\ADDSERVICE.RESX
^D:\РАБОТА\НОВЫЙ СЕМЕСТР!!!!!!!!!!!!!!!\Дипломы мои\готовое\STO\STO\ZAKAZ.RESX
^D:\РАБОТА\НОВЫЙ СЕМЕСТР!!!!!!!!!!!!!!!\Дипломы мои\готовое\STO\STO\CHEK.RESX
